{
  
  "industries": [
    "Construction",
    "Hospitality",
    "Real estate",
    "Tourism",
    "Manufacturing",
    "Farming",
    "Fishing",
    "Education",
    "Public services",
    "Administration",
    "Technology",
    "Media",
    "Financial services",
    "Legal",
    "Health care",
    "Government",
    "Medical",
    "Security",
    "Logistics",
    "Robotics",
    "Fashion",
    "Automotive",
    "Transportation",
    "Customer support"
  ],
  "interests": [
    "Outdoors",
    "Fitness",
    "Health",
    "Travel",
    "Sport",
    "Cooking",
    "Adventure",
    "Music",
    "Fashion",
    "Technology",
    "Architecture",
    "Writing",
    "Gamming",
    "Dinning",
    "History",
    "Theatre",
    "Networking",
    "Art",
    "Politics",
    "Fishing",
    "Meet people",
    "Podcasts",
    "Gambling",
    "Self improvement",
    "Foreign languages",
    "Movies",
    "Celebrities",
    "Dating",
    "Social media",
    "Photography"
  ],
  "educationTimeList": [
    "Right now",
    "0 to 3 months",
    "3 to 6 months",
    "6 to 12 months",
    "After 1 year",
    "I'm not sure"
  ],
  "whyList": [
    "Life Style",
    "workOp",
    "Education",
    "Finance",
    "Tourism",
    "Family",
    "Buisness",
    "Secuirty",
    "culture"
  ],
  "savings": [
    "No savings",
    "0 to 1000 aed",
    "1000 to 5000 aed",
    "5000 to 10000 aed",
    "10000 to 20000 aed",
    "20000 to 50000 aed",
    "+ 50000 aed"
  ],
  "educationList": ["High school or less", "Collage", "Diploma", "Bachelors"],
  
  "howLongList": [
    "Up To 3 months",
    "3 To 6 months",
    "6 To 12 months",
    "+12 months",
    "+3 years"
  ]
}